…
This toolset has been constructed with performance in mind for large scale scraping of spatial data.
Hence, this package should work sufficiently well with datasets of size of entire states or countries.

# Basic functionalities walkthrough

## Exporting points of interests

The examples assume that the sample file is used
```
file = sample_osm_file()
```
Let us use the default configuration for parsing.
```
julia> df1 = find_poi(file)
78×10 DataFrame
 Row │ elemtype  elemid      nodeid      lat      lon       key               value       ⋯
     │ Symbol    Int64       Int64       Float64  Float64   String            String      ⋯
─────┼─────────────────────────────────────────────────────────────────────────────────────
   1 │ node        69487440    69487440  42.3649  -71.1029  public_transport  stop_positi ⋯
  ⋮  │    ⋮          ⋮           ⋮          ⋮        ⋮             ⋮                ⋮     ⋱
  78 │ relation     7943642  2913461577  42.3624  -71.0847  leisure           park        ⋯
                                                              4 columns and 76 rows omitted
```
…
Note that the scraping configuration can be extracted to a data frame by executing `config |> DataFrame`. Such dataframe can also be used to create a new configuration by executing `ScrapePOIConfig{NoneMetaPOI}(DataFrame(key=["amenity","parking"],values=["parking","*"]))`.

Note that since we do not use meta data yet we use parameter: `NoneMetaPOI`.
Now this can be scraped as :
```
julia> df2 = find_poi(file, config)
12×7 DataFrame
 Row │ elemtype  elemid      nodeid      lat      lon       key      value
     │ Symbol    Int64       Int64       Float64  Float64   String   String
─────┼───────────────────────────────────────────────────────────────────────
   1 │ way        187565434  1982207088  42.3603  -71.0866  amenity  parking
  ⋮  │    ⋮          ⋮           ⋮          ⋮        ⋮         ⋮        ⋮
  12 │ way       1052438049  9672086211  42.3624  -71.0878  parking  surface                                                              10 rows omitted
```

It is also possible to extract adjacent tags within the same node - this cab be achieved via the `all_tags` option.
For an example we could get the information on parking place metadata.

```
find_poi(file, ScrapePOIConfig("parking",("amenity","parking")); all_tags=true)
25×7 DataFrame
 Row │ elemtype  elemid      nodeid      lat      lon       key            value
     │ Symbol    Int64       Int64       Float64  Float64   String         String
─────┼────────────────────────────────────────────────────────────────────────────────
   1 │ way        187565434  1982207088  42.3603  -71.0866  amenity        parking
   2 │ way        187565434  1982207088  42.3603  -71.0866  access         private
   3 │ way        187565434  1982207088  42.3603  -71.0866  parking        surface
   4 │ way        187565434  1982207088  42.3603  -71.0866  surface        asphalt
  ⋮  │    ⋮          ⋮           ⋮          ⋮        ⋮            ⋮            ⋮
  25 │ way       1052438049  9672086211  42.3624  -71.0878  parking        surface
                                                                       20 rows omitted
```
…
Note that in this demo we assume attractiveness configuration defined as `AttractivenessMetaPOI`. If you want a different structure of data for this index you need to crate a subtype of `MetaPOI` and use it in the constructor.

We search for such locations:
```
julia> df3 = find_poi(file, config3)
18×10 DataFrame
 Row │ elemtype  elemid       nodeid       lat      lon       key      value       group   influence  range
     │ Symbol    Int64        Int64        Float64  Float64   String   String      Symbol  Float64    Float64
─────┼────────────────────────────────────────────────────────────────────────────────────────────────────────
   1 │ node       1884054889   1884054889  42.3621  -71.0892  amenity  cafe        food          1.0    500.0
   2 │ node       1884055322   1884055322  42.3617  -71.09    amenity  cafe        food          1.0    500.0
  ⋮  │    ⋮           ⋮            ⋮          ⋮        ⋮         ⋮         ⋮         ⋮         ⋮         ⋮
  17 │ way        1052438049   9672086211  42.3624  -71.0878  amenity  parking     car           1.0    500.0
  18 │ way        1052438049   9672086211  42.3624  -71.0878  parking  surface     car           1.0    500.0
                                                                                               14 rows omitted
```
…
